<svg width="260" height="257" viewBox="0 0 260 257" fill="none" xmlns="http://www.w3.org/2000/svg">
<path d="M9.0392 131.777L186.336 131.777C191.328 131.777 195.375 127.73 195.375 122.738L195.375 11.6763C195.375 6.68405 191.328 2.63705 186.336 2.63705L9.0392 2.63705C4.04698 2.63705 -1.52588e-05 6.68405 -1.52588e-05 11.6763L-1.52588e-05 122.738C-1.52588e-05 127.73 4.04698 131.777 9.0392 131.777Z" fill="#263238"/>
<path d="M51.2675 249.919L94.1059 207.081L95.1529 206.034V79.093C95.1549 78.6421 95.3349 78.2103 95.6537 77.8914C95.9725 77.5726 96.4044 77.3926 96.8553 77.3906H98.52C98.9709 77.3926 99.4027 77.5726 99.7216 77.8914C100.04 78.2103 100.22 78.6421 100.222 79.093V206.034L101.269 207.081L144.108 249.919C144.244 250.054 144.352 250.215 144.426 250.392C144.5 250.569 144.538 250.759 144.538 250.951C144.538 251.143 144.5 251.333 144.426 251.51C144.352 251.687 144.244 251.848 144.108 251.983L142.601 253.49C142.328 253.761 141.958 253.913 141.573 253.913C141.188 253.913 140.818 253.761 140.545 253.49L100.222 213.175V252.209C100.22 252.66 100.04 253.092 99.7216 253.411C99.4027 253.729 98.9709 253.909 98.52 253.911H96.8553C96.4044 253.909 95.9725 253.729 95.6537 253.411C95.3349 253.092 95.1549 252.66 95.1529 252.209V213.175L54.853 253.475C54.5736 253.737 54.2046 253.884 53.8211 253.884C53.4376 253.884 53.0685 253.737 52.7891 253.475L51.2826 251.968C51.0221 251.691 50.8759 251.326 50.8731 250.947C50.8703 250.567 51.0112 250.2 51.2675 249.919Z" fill="#263238"/>
<path d="M173.154 0H167.436V0.753268H173.154V0Z" fill="#407BFF"/>
<path d="M162.163 0H150.239V0.753268H162.163V0Z" fill="#407BFF"/>
<path d="M10.8848 131.777L188.181 131.777C193.174 131.777 197.221 127.73 197.221 122.738L197.221 11.6763C197.221 6.68405 193.174 2.63705 188.181 2.63705L10.8848 2.63705C5.89256 2.63705 1.84557 6.68405 1.84557 11.6763L1.84557 122.738C1.84557 127.73 5.89256 131.777 10.8848 131.777Z" fill="#407BFF"/>
<path d="M191.94 122.737V11.6755C191.94 9.59543 190.254 7.90918 188.174 7.90918L10.8773 7.90918C8.79716 7.90918 7.11092 9.59543 7.11092 11.6755V122.737C7.11092 124.817 8.79716 126.504 10.8773 126.504L188.174 126.504C190.254 126.504 191.94 124.817 191.94 122.737Z" fill="#FAFAFA"/>
<path d="M92.7348 207.736H102.648C103.967 207.736 105.036 206.667 105.036 205.348V198.577C105.036 197.258 103.967 196.189 102.648 196.189H92.7348C91.416 196.189 90.3469 197.258 90.3469 198.577V205.348C90.3469 206.667 91.416 207.736 92.7348 207.736Z" fill="#407BFF"/>
<path opacity="0.1" d="M75.9068 107.062C82.611 107.062 89.1647 105.074 94.739 101.349C100.313 97.6244 104.658 92.3304 107.224 86.1365C109.789 79.9426 110.46 73.1271 109.153 66.5517C107.845 59.9763 104.616 53.9364 99.8757 49.1958C95.1351 44.4552 89.0952 41.2268 82.5198 39.9189C75.9444 38.611 69.1289 39.2823 62.935 41.8479C56.7411 44.4134 51.4471 48.7581 47.7224 54.3325C43.9978 59.9068 42.0098 66.4604 42.0098 73.1647C42.0098 82.1547 45.5811 90.7766 51.938 97.1335C58.2949 103.49 66.9168 107.062 75.9068 107.062ZM75.9068 39.9606C82.4791 39.9591 88.9042 41.9067 94.3694 45.5572C99.8347 49.2076 104.095 54.3968 106.61 60.4685C109.126 66.5402 109.785 73.2216 108.503 79.6676C107.221 86.1136 104.056 92.0348 99.4091 96.682C94.7619 101.329 88.8408 104.494 82.3947 105.776C75.9487 107.058 69.2673 106.399 63.1956 103.883C57.1239 101.367 51.9347 97.1075 48.2843 91.6423C44.6338 86.177 42.6862 79.752 42.6877 73.1797C42.6977 64.3725 46.2007 55.9289 52.4284 49.7013C58.656 43.4736 67.0996 39.9706 75.9068 39.9606Z" fill="black"/>
<path d="M35.4715 22.417H65.3009C66.3624 22.419 67.3798 22.8421 68.1297 23.5934C68.8796 24.3447 69.3008 25.3629 69.3008 26.4244V81.5636C69.3008 82.6264 68.8785 83.6457 68.127 84.3973C67.3755 85.1488 66.3562 85.571 65.2934 85.571H27.1177C26.0549 85.571 25.0356 85.1488 24.2841 84.3973C23.5326 83.6457 23.1104 82.6264 23.1104 81.5636V34.7781L35.4715 22.417Z" fill="#407BFF"/>
<path d="M37.2189 80.0575H62.0767C62.5292 80.0479 62.9605 79.8639 63.2805 79.5439C63.6006 79.2238 63.7846 78.7926 63.7942 78.3401C63.7922 77.8765 63.6077 77.4324 63.2806 77.1038C62.9535 76.7753 62.5102 76.5889 62.0466 76.585H37.1888C36.7298 76.5948 36.293 76.7841 35.972 77.1122C35.6509 77.4402 35.4712 77.881 35.4713 78.3401C35.4811 78.7977 35.6693 79.2334 35.9958 79.5542C36.3223 79.8751 36.7612 80.0557 37.2189 80.0575Z" fill="white"/>
<path d="M48.9172 31.4412H62.0467C62.5103 31.4372 62.9536 31.2508 63.2807 30.9223C63.6078 30.5938 63.7923 30.1496 63.7943 29.6861C63.7923 29.2232 63.6075 28.7798 63.2802 28.4525C62.9529 28.1252 62.5096 27.9405 62.0467 27.9385H48.9172C48.4536 27.9404 48.0095 28.125 47.681 28.452C47.3525 28.7791 47.1661 29.2225 47.1621 29.6861C47.1641 30.1509 47.3496 30.5962 47.6784 30.9249C48.0071 31.2536 48.4524 31.4392 48.9172 31.4412Z" fill="white"/>
<path d="M40.3525 38.4168H62.0466C62.5102 38.4128 62.9536 38.2264 63.2807 37.8979C63.6077 37.5694 63.7923 37.1252 63.7942 36.6616C63.7922 36.1988 63.6075 35.7554 63.2802 35.4281C62.9529 35.1008 62.5095 34.916 62.0466 34.9141H40.3525C39.8889 34.916 39.4448 35.1005 39.1163 35.4276C38.7878 35.7547 38.6014 36.1981 38.5974 36.6616C38.5994 37.1265 38.7849 37.5718 39.1137 37.9005C39.4424 38.2292 39.8877 38.4148 40.3525 38.4168Z" fill="white"/>
<path d="M30.3793 45.3318H62.0165C62.4801 45.3278 62.9234 45.1414 63.2505 44.8129C63.5776 44.4844 63.7621 44.0403 63.7641 43.5767C63.7621 43.1138 63.5774 42.6705 63.2501 42.3431C62.9228 42.0158 62.4794 41.8311 62.0165 41.8291H30.3793C29.9151 41.8291 29.4698 42.013 29.1409 42.3405C28.8119 42.668 28.6261 43.1125 28.6241 43.5767C28.6241 44.0422 28.8091 44.4886 29.1382 44.8177C29.4674 45.1469 29.9138 45.3318 30.3793 45.3318Z" fill="white"/>
<path d="M30.3793 52.2771H48.7891C49.2533 52.2751 49.6978 52.0893 50.0253 51.7604C50.3528 51.4315 50.5367 50.9862 50.5367 50.522C50.5347 50.0591 50.35 49.6158 50.0227 49.2885C49.6954 48.9612 49.252 48.7764 48.7891 48.7744H30.3793C29.9151 48.7744 29.4698 48.9583 29.1409 49.2858C28.8119 49.6133 28.6261 50.0578 28.6241 50.522C28.6241 50.7525 28.6695 50.9807 28.7577 51.1937C28.8459 51.4066 28.9752 51.6001 29.1382 51.7631C29.3012 51.926 29.4947 52.0553 29.7076 52.1435C29.9205 52.2317 30.1488 52.2771 30.3793 52.2771Z" fill="white"/>
<path d="M57.2484 52.2771H62.0694C62.5329 52.2732 62.9763 52.0867 63.3034 51.7582C63.6305 51.4297 63.815 50.9856 63.8169 50.522C63.815 50.0591 63.6302 49.6158 63.3029 49.2885C62.9756 48.9612 62.5322 48.7764 62.0694 48.7744H57.2484C56.7856 48.7764 56.3422 48.9612 56.0149 49.2885C55.6876 49.6158 55.5028 50.0591 55.5009 50.522C55.5028 50.9856 55.6873 51.4297 56.0144 51.7582C56.3415 52.0867 56.7849 52.2732 57.2484 52.2771Z" fill="white"/>
<path d="M30.3793 59.2226H62.0165C62.4801 59.2186 62.9234 59.0322 63.2505 58.7037C63.5776 58.3752 63.7621 57.931 63.7641 57.4674C63.7564 57.0136 63.5732 56.5805 63.253 56.2588C62.9328 55.9372 62.5004 55.7521 62.0466 55.7425H30.4094C30.1789 55.7385 29.9499 55.7799 29.7354 55.8644C29.5209 55.949 29.3252 56.0749 29.1594 56.2351C28.9937 56.3953 28.8611 56.5866 28.7692 56.798C28.6774 57.0095 28.6281 57.2369 28.6241 57.4674C28.6241 57.9329 28.8091 58.3793 29.1382 58.7085C29.4674 59.0376 29.9138 59.2226 30.3793 59.2226Z" fill="white"/>
<path d="M42.5973 66.1677H62.0467C62.5096 66.1657 62.9529 65.981 63.2802 65.6537C63.6075 65.3264 63.7923 64.883 63.7943 64.4201C63.7923 63.9566 63.6078 63.5124 63.2807 63.1839C62.9536 62.8554 62.5103 62.669 62.0467 62.665H42.5973C42.1331 62.667 41.6886 62.8528 41.3611 63.1818C41.0336 63.5107 40.8497 63.956 40.8497 64.4201C40.8517 64.883 41.0365 65.3264 41.3638 65.6537C41.6911 65.981 42.1344 66.1657 42.5973 66.1677Z" fill="white"/>
<path d="M30.3793 66.1677H35.5693C36.0322 66.1657 36.4755 65.981 36.8028 65.6537C37.1301 65.3264 37.3149 64.883 37.3169 64.4201C37.3169 63.956 37.133 63.5107 36.8055 63.1818C36.4779 62.8528 36.0335 62.667 35.5693 62.665H30.3793C29.9138 62.665 29.4674 62.85 29.1382 63.1791C28.8091 63.5082 28.6241 63.9547 28.6241 64.4201C28.6261 64.8843 28.8119 65.3288 29.1409 65.6563C29.4698 65.9839 29.9151 66.1677 30.3793 66.1677Z" fill="white"/>
<path d="M30.3793 73.1121H62.0165C62.4794 73.1101 62.9228 72.9253 63.2501 72.598C63.5774 72.2707 63.7621 71.8274 63.7641 71.3645C63.7621 70.9009 63.5776 70.4568 63.2505 70.1283C62.9234 69.7998 62.4801 69.6133 62.0165 69.6094H30.3793C29.9138 69.6094 29.4674 69.7943 29.1382 70.1234C28.8091 70.4526 28.6241 70.899 28.6241 71.3645C28.6261 71.8287 28.8119 72.2732 29.1409 72.6007C29.4698 72.9282 29.9151 73.1121 30.3793 73.1121Z" fill="white"/>
<path opacity="0.2" d="M35.4715 22.417V30.7707C35.4695 31.8343 35.0456 32.8535 34.2929 33.6048C33.5402 34.3562 32.5201 34.7781 31.4566 34.7781H23.1104L35.4715 22.417Z" fill="black"/>
<path d="M135.588 27.4711V15.5469C125.52 15.5417 115.732 18.8604 107.742 24.9879C99.7534 31.1155 94.0106 39.7089 91.4056 49.4344C88.8006 59.1599 89.479 69.4734 93.3356 78.7738C97.1922 88.0743 104.011 95.8414 112.734 100.87L118.692 90.5347C112.247 86.8171 107.208 81.0757 104.359 74.2017C101.51 67.3277 101.009 59.7054 102.935 52.5178C104.86 45.3302 109.105 38.9791 115.009 34.4503C120.913 29.9215 128.147 27.4682 135.588 27.4711Z" fill="#263238"/>
<path opacity="0.2" d="M181.282 61.2702C181.278 49.1501 176.463 37.5271 167.896 28.954C159.328 20.3809 147.708 15.5589 135.588 15.5469V27.4711C144.55 27.4751 153.144 31.0376 159.481 37.3755C165.817 43.7134 169.378 52.3081 169.38 61.2702H181.282Z" fill="black"/>
<path d="M181.282 61.2705H169.35C169.352 67.2031 167.792 73.0316 164.827 78.17C161.862 83.3083 157.595 87.5752 152.458 90.5415C147.32 93.5078 141.492 95.0689 135.559 95.0677C129.627 95.0666 123.799 93.5032 118.662 90.535L112.704 100.87C119.654 104.874 127.535 106.979 135.556 106.974C143.576 106.969 151.455 104.854 158.4 100.842C165.345 96.8301 171.113 91.0616 175.124 84.1158C179.135 77.17 181.248 69.2913 181.251 61.2705H181.282Z" fill="#407BFF"/>
<path d="M71.214 94.0983L85.6692 75.4248L100.124 94.0983H93.3224V118.271H78.016V94.0983H71.214Z" fill="#407BFF"/>
<path d="M193.055 247.584L187.338 245.603L190.396 231.849L196.113 233.822L193.055 247.584Z" fill="#E5BAAB"/>
<path opacity="0.2" d="M190.396 231.849L188.822 238.944L194.539 240.918L196.113 233.83L190.396 231.849Z" fill="black"/>
<path d="M247.991 250.83H241.942L237.234 236.827H243.275L247.991 250.83Z" fill="#E5BAAB"/>
<path opacity="0.2" d="M243.283 236.827H237.234L239.667 244.051H245.709L243.283 236.827Z" fill="black"/>
<path d="M241.136 250.13H248.511C248.63 250.131 248.746 250.172 248.839 250.247C248.933 250.323 248.997 250.427 249.023 250.544L250.213 255.915C250.241 256.046 250.24 256.181 250.209 256.311C250.177 256.441 250.117 256.563 250.032 256.666C249.948 256.77 249.841 256.853 249.719 256.909C249.598 256.966 249.465 256.994 249.332 256.992C246.959 256.947 245.226 256.811 242.243 256.811C240.405 256.811 234.861 257 232.323 257C229.784 257 229.453 254.491 230.492 254.265C235.155 253.248 238.665 251.84 240.157 250.499C240.426 250.259 240.775 250.127 241.136 250.13Z" fill="#263238"/>
<path d="M187.609 244.955L193.846 247.117C193.96 247.156 194.057 247.232 194.121 247.334C194.185 247.435 194.213 247.555 194.2 247.675L193.567 253.143C193.558 253.278 193.518 253.409 193.449 253.525C193.381 253.641 193.286 253.74 193.173 253.813C193.059 253.886 192.93 253.932 192.796 253.946C192.662 253.961 192.526 253.944 192.4 253.897C190.14 253.083 186.954 251.825 184.114 250.884C180.807 249.739 177.892 248.933 174.012 247.584C171.662 246.778 171.835 244.179 172.89 244.3C177.696 244.872 181.387 246.032 186.072 244.985C186.572 244.835 187.104 244.824 187.609 244.955Z" fill="#263238"/>
<path d="M117.141 48.0586L178.856 102.987L177.794 104.162L116.636 48.616L117.141 48.0586Z" fill="#263238"/>
<path d="M220.466 69.0673C220.022 70.378 219.608 71.5079 219.118 72.7056C218.629 73.9033 218.162 75.0483 217.612 76.2008C216.607 78.5209 215.465 80.7982 214.184 83.0329C212.913 85.3188 211.489 87.5159 209.921 89.609C208.269 91.8542 206.338 93.8793 204.173 95.6351L203.269 96.3055C202.953 96.524 202.607 96.7349 202.275 96.9458C201.62 97.3504 200.938 97.7102 200.234 98.023C198.901 98.6136 197.513 99.0727 196.091 99.3939C193.446 99.9838 190.74 100.254 188.031 100.2C185.452 100.141 182.881 99.8894 180.34 99.4466C179.082 99.2433 177.847 98.9721 176.611 98.6934C175.376 98.4147 174.186 98.0908 172.905 97.6689L173.915 93.2397C175.007 93.3301 176.22 93.4205 177.372 93.4808C178.525 93.541 179.715 93.5561 180.875 93.5712C183.159 93.5922 185.443 93.479 187.714 93.2322C189.859 93.0209 191.975 92.5815 194.027 91.9215C194.95 91.6225 195.841 91.2313 196.686 90.7539C197.077 90.5453 197.452 90.3086 197.808 90.0459C197.981 89.9178 198.147 89.8048 198.32 89.6617L198.84 89.2097C200.329 87.7759 201.656 86.1818 202.795 84.4566C204.032 82.5878 205.169 80.6541 206.2 78.664C207.247 76.6452 208.233 74.5587 209.167 72.4345C209.64 71.3799 210.094 70.3127 210.531 69.2331C210.953 68.1785 211.405 67.0486 211.766 66.0693L220.466 69.0673Z" fill="#E5BAAB"/>
<path d="M222.915 66.0916C224.218 71.7261 213.8 87.5522 213.8 87.5522L200.746 78.0083C203.209 73.3415 206.167 68.9524 209.567 64.9165C214.681 59.1691 221.499 59.9073 222.915 66.0916Z" fill="#263238"/>
<path d="M174.69 93.2465L168.242 91.7852L169.176 99.4308C170.375 99.7506 171.644 99.679 172.798 99.2263C173.953 98.7737 174.933 97.9638 175.594 96.9149L174.69 93.2465Z" fill="#E5BAAB"/>
<path d="M164.024 91.6045L166.118 97.3971L169.177 99.4535L168.242 91.7853L164.024 91.6045Z" fill="#E5BAAB"/>
<path d="M249.964 65.2478C242.1 87.7856 241.957 112.237 241.046 117.088C236.345 116.462 218.644 114.075 208.987 112.771C206.825 78.1663 216.331 61.0219 216.331 61.0219C216.331 61.0219 218.425 60.7432 221.257 60.6227C222.139 60.6227 223.103 60.5625 224.097 60.57C224.647 60.57 225.205 60.57 225.77 60.57C230.341 60.9219 234.888 61.5355 239.389 62.408C240.247 62.5661 241.114 62.7469 241.942 62.9352C242.771 63.1236 243.449 63.3043 244.202 63.4927C247.479 64.3815 249.964 65.2478 249.964 65.2478Z" fill="#263238"/>
<path d="M244.232 63.5303L241.701 65.4436C238.477 67.8767 234.786 70.129 229.468 70.129C228.873 70.129 228.255 70.129 227.63 70.0386C223.239 69.6017 221.559 67.4624 220.911 65.7374C220.625 64.9036 220.512 64.0206 220.576 63.1415C220.641 62.2625 220.883 61.4057 221.288 60.6227C222.169 60.6227 223.133 60.5625 224.127 60.57C224.677 60.57 225.235 60.57 225.8 60.57C230.371 60.9219 234.918 61.5355 239.419 62.408C240.277 62.5661 241.144 62.7469 241.972 62.9352C242.801 63.1236 243.509 63.342 244.232 63.5303Z" fill="#407BFF"/>
<path d="M240.142 46.9209C238.688 51.1919 236.745 59.1088 239.389 62.4458C236.692 64.4946 233.204 66.8072 227.977 66.295C222.749 65.7827 224.135 62.3177 225.769 60.6078C230.809 60.1031 231.178 56.4573 230.779 52.9395L240.142 46.9209Z" fill="#E5BAAB"/>
<path opacity="0.2" d="M236.338 49.377L230.816 52.9324C230.921 53.754 230.951 54.5835 230.907 55.4106C232.813 55.4106 235.652 53.6856 236.119 51.7573C236.334 50.9833 236.408 50.1771 236.338 49.377Z" fill="black"/>
<path d="M229.039 29.7924C224.353 29.4158 222.734 40.6922 225.656 42.8541C228.579 45.016 237.814 30.508 229.039 29.7924Z" fill="#263238"/>
<path d="M241.551 40.3977C240.383 46.2882 239.999 49.7909 236.594 52.4499C231.464 56.4197 224.542 52.7136 223.886 46.597C223.329 41.0982 225.333 32.3904 231.419 30.7784C232.773 30.4146 234.198 30.4047 235.557 30.7496C236.916 31.0945 238.164 31.7826 239.181 32.7481C240.198 33.7136 240.95 34.924 241.365 36.2635C241.78 37.6029 241.844 39.0264 241.551 40.3977Z" fill="#E5BAAB"/>
<path d="M240.353 46.1601C237.445 47.968 234.658 31.848 242.703 32.2699C252.578 32.7369 246.515 42.326 240.353 46.1601Z" fill="#263238"/>
<path d="M242.861 34.5673C238.552 35.9608 220.331 34.1153 218.071 29.6033C219.369 29.7528 220.684 29.5875 221.905 29.1212C221.905 29.1212 218.041 28.0741 217.431 24.5488C224.255 28.0289 238.658 23.4943 243.795 27.3585C248.081 30.5524 246.198 33.4826 242.861 34.5673Z" fill="#263238"/>
<path d="M244.94 33.0611C244.94 33.0611 244.692 31.3211 249.761 33.3248C245.573 32.5715 245.083 33.8219 245.083 33.8219L244.94 33.0611Z" fill="#263238"/>
<path d="M243.351 47.3049C242.378 48.4598 240.99 49.1851 239.486 49.3236C237.498 49.4894 236.873 47.6137 237.746 45.9264C238.5 44.4199 240.503 42.499 242.356 43.1242C244.209 43.7495 244.518 45.8737 243.351 47.3049Z" fill="#E5BAAB"/>
<path d="M187.134 236.881L196.814 240.225C196.814 240.225 206.29 202.878 209.258 184.273C210.169 178.608 212.18 170.774 214.621 162.428C217.702 151.882 221.446 140.515 224.481 131.627C227.683 122.256 230.093 115.635 230.093 115.635L209.002 112.795C209.002 112.795 192.95 162.006 191.142 180.371C189.281 199.451 187.134 236.881 187.134 236.881Z" fill="#407BFF"/>
<path opacity="0.2" d="M214.621 162.412C217.702 151.866 221.446 140.5 224.481 131.611L222.591 126.737C216.941 132.635 214.282 151.859 214.621 162.412Z" fill="black"/>
<path d="M220.391 114.309C220.391 114.309 219.344 166.111 220.768 183.775C222.327 203.111 236.82 242.65 236.82 242.65H247.893C247.893 242.65 240.503 206.494 238.236 187.662C235.652 166.269 241.068 117.073 241.068 117.073L220.391 114.309Z" fill="#407BFF"/>
<path d="M235.494 242.891H248.533V238.996L233.958 238.74L235.494 242.891Z" fill="#263238"/>
<path d="M185.846 236.685L197.371 240.677L198.667 236.956L185.846 232.293V236.685Z" fill="#263238"/>
<path d="M232.323 40.8426C232.255 41.3247 231.946 41.6862 231.63 41.641C231.314 41.5959 231.11 41.174 231.178 40.6919C231.246 40.2098 231.555 39.8483 231.871 39.8935C232.187 39.9387 232.391 40.3605 232.323 40.8426Z" fill="#263238"/>
<path d="M226.862 40.1033C226.794 40.593 226.485 40.947 226.169 40.9018C225.852 40.8566 225.649 40.4348 225.717 39.9527C225.785 39.4706 226.086 39.109 226.402 39.1542C226.719 39.1994 226.922 39.6212 226.862 40.1033Z" fill="#263238"/>
<path d="M228.564 40.5791C227.791 41.9937 226.825 43.2941 225.694 44.4434C225.994 44.7255 226.351 44.939 226.741 45.0691C227.131 45.1992 227.545 45.2427 227.954 45.1966L228.564 40.5791Z" fill="#D0A190"/>
<path d="M229.807 46.7033C230.356 46.7165 230.901 46.6163 231.409 46.4089C231.917 46.2015 232.377 45.8914 232.76 45.498C232.773 45.4854 232.783 45.4702 232.791 45.4533C232.798 45.4365 232.802 45.4184 232.802 45.4001C232.802 45.3818 232.798 45.3637 232.791 45.3469C232.783 45.33 232.773 45.3148 232.76 45.3022C232.746 45.2887 232.731 45.2781 232.713 45.2708C232.696 45.2635 232.677 45.2598 232.658 45.2598C232.639 45.2598 232.62 45.2635 232.603 45.2708C232.586 45.2781 232.57 45.2887 232.556 45.3022C232.125 45.7276 231.599 46.0459 231.022 46.2316C230.446 46.4174 229.833 46.4654 229.234 46.3718C229.216 46.3693 229.197 46.3706 229.178 46.3755C229.16 46.3804 229.143 46.3889 229.128 46.4004C229.113 46.412 229.1 46.4264 229.091 46.4428C229.081 46.4592 229.075 46.4773 229.073 46.4961C229.07 46.5149 229.071 46.534 229.076 46.5523C229.081 46.5706 229.09 46.5878 229.101 46.6028C229.113 46.6179 229.127 46.6305 229.143 46.64C229.16 46.6494 229.178 46.6556 229.197 46.6581C229.399 46.6861 229.603 46.7012 229.807 46.7033Z" fill="#263238"/>
<path d="M234.266 39.3054C234.313 39.319 234.363 39.319 234.409 39.3054C234.442 39.2867 234.471 39.2617 234.494 39.2318C234.517 39.202 234.534 39.1679 234.544 39.1315C234.553 39.0951 234.556 39.0571 234.551 39.0198C234.546 38.9824 234.534 38.9464 234.515 38.9137C234.306 38.506 234 38.1556 233.625 37.893C233.249 37.6304 232.815 37.4636 232.361 37.4072C232.323 37.4041 232.286 37.4086 232.25 37.4202C232.215 37.4319 232.182 37.4506 232.154 37.4752C232.126 37.4998 232.103 37.5298 232.087 37.5634C232.071 37.597 232.061 37.6335 232.059 37.6708C232.056 37.7081 232.061 37.7455 232.072 37.781C232.084 37.8165 232.103 37.8492 232.127 37.8773C232.152 37.9054 232.182 37.9283 232.216 37.9446C232.249 37.9609 232.286 37.9703 232.323 37.9721C232.675 38.0287 233.01 38.1663 233.3 38.3741C233.59 38.582 233.828 38.8544 233.995 39.1698C234.024 39.215 234.064 39.2514 234.112 39.2753C234.16 39.2992 234.213 39.3096 234.266 39.3054Z" fill="#263238"/>
<path d="M224.76 37.9118C224.807 37.9116 224.852 37.8998 224.893 37.8775C224.934 37.8551 224.968 37.8229 224.994 37.7837C225.183 37.4764 225.443 37.2189 225.752 37.0328C226.062 36.8467 226.411 36.7374 226.771 36.7141C226.847 36.7141 226.92 36.6839 226.974 36.6302C227.027 36.5766 227.057 36.5038 227.057 36.4278C227.057 36.3519 227.027 36.2791 226.974 36.2254C226.92 36.1718 226.847 36.1416 226.771 36.1416C226.316 36.1661 225.873 36.2993 225.48 36.5299C225.087 36.7606 224.755 37.082 224.511 37.4674C224.49 37.4989 224.476 37.5344 224.469 37.5716C224.461 37.6088 224.462 37.6472 224.469 37.6843C224.477 37.7215 224.492 37.7567 224.514 37.788C224.535 37.8193 224.562 37.846 224.594 37.8666C224.644 37.8978 224.702 37.9136 224.76 37.9118Z" fill="#263238"/>
<path d="M239.132 251.185C239.669 251.174 240.202 251.101 240.722 250.966C240.748 250.96 240.772 250.945 240.791 250.925C240.81 250.905 240.822 250.88 240.827 250.853C240.832 250.825 240.829 250.797 240.816 250.771C240.804 250.745 240.784 250.724 240.76 250.71C240.541 250.567 238.59 249.369 237.92 249.716C237.846 249.755 237.784 249.813 237.742 249.885C237.699 249.957 237.677 250.039 237.679 250.123C237.661 250.263 237.678 250.405 237.729 250.537C237.781 250.668 237.864 250.785 237.972 250.876C238.312 251.109 238.722 251.218 239.132 251.185ZM240.3 250.763C239.276 250.974 238.485 250.936 238.153 250.658C238.082 250.593 238.027 250.512 237.994 250.421C237.961 250.331 237.951 250.233 237.965 250.138C237.965 250.025 238.01 249.987 238.055 249.972C238.402 249.791 239.539 250.311 240.292 250.763H240.3Z" fill="#407BFF"/>
<path d="M240.684 250.974C240.709 250.981 240.735 250.981 240.76 250.974C240.782 250.96 240.801 250.94 240.813 250.916C240.825 250.892 240.83 250.865 240.827 250.838C240.827 250.763 240.677 249.023 239.976 248.45C239.894 248.376 239.797 248.321 239.692 248.288C239.587 248.256 239.475 248.247 239.366 248.262C239.258 248.263 239.154 248.301 239.07 248.37C238.986 248.438 238.929 248.533 238.906 248.639C238.778 249.309 239.991 250.635 240.616 250.974C240.639 250.98 240.662 250.98 240.684 250.974ZM239.464 248.518C239.586 248.521 239.703 248.567 239.795 248.646C240.229 249.187 240.492 249.846 240.549 250.537C239.923 250.07 239.155 249.03 239.23 248.669C239.23 248.631 239.23 248.548 239.434 248.526H239.502L239.464 248.518Z" fill="#407BFF"/>
<path d="M186.811 245.565C186.837 245.566 186.863 245.559 186.885 245.546C186.908 245.532 186.926 245.513 186.939 245.49C186.955 245.465 186.963 245.437 186.963 245.407C186.963 245.378 186.955 245.349 186.939 245.324C186.728 245.098 184.829 243.14 184.001 243.29C183.924 243.304 183.853 243.337 183.792 243.386C183.732 243.435 183.684 243.498 183.654 243.569C183.594 243.685 183.562 243.815 183.562 243.946C183.562 244.077 183.594 244.206 183.654 244.322C184.091 245.076 185.809 245.437 186.795 245.573L186.811 245.565ZM184.084 243.569C184.566 243.569 185.65 244.473 186.404 245.219C185.07 244.993 184.144 244.609 183.91 244.179C183.87 244.103 183.848 244.017 183.848 243.931C183.848 243.844 183.87 243.759 183.91 243.682C183.921 243.653 183.939 243.627 183.963 243.607C183.987 243.587 184.015 243.574 184.046 243.569H184.084Z" fill="#407BFF"/>
<path d="M186.81 245.565C186.833 245.556 186.854 245.542 186.871 245.523C186.888 245.505 186.901 245.484 186.908 245.46C186.908 245.392 187.3 243.795 186.78 242.952C186.709 242.828 186.612 242.72 186.497 242.636C186.382 242.552 186.25 242.492 186.11 242.462C185.726 242.364 185.553 242.522 185.477 242.665C185.146 243.276 186.087 244.978 186.667 245.528C186.684 245.548 186.707 245.563 186.733 245.569C186.759 245.576 186.786 245.575 186.81 245.565ZM185.944 242.718H186.087C186.191 242.74 186.289 242.784 186.374 242.846C186.46 242.908 186.532 242.988 186.585 243.08C186.839 243.722 186.889 244.427 186.728 245.098C186.17 244.436 185.575 243.14 185.771 242.778C185.786 242.756 185.806 242.738 185.83 242.725C185.853 242.712 185.88 242.704 185.907 242.703L185.944 242.718Z" fill="#407BFF"/>
<path d="M251.109 68.7129C251.697 69.7976 252.187 70.7693 252.669 71.8088C253.151 72.8483 253.625 73.8577 254.077 74.8972C254.974 76.9762 255.795 79.0854 256.525 81.2473C257.28 83.4202 257.924 85.6301 258.454 87.8685L258.846 89.5709L259.162 91.3109C259.275 91.891 259.343 92.486 259.418 93.0811L259.531 93.97V94.196L259.569 94.5651C259.582 94.816 259.582 95.0674 259.569 95.3183C259.51 96.9019 259.146 98.4594 258.499 99.9057C257.997 101.062 257.421 102.184 256.774 103.265C255.565 105.247 254.226 107.147 252.767 108.952C249.959 112.455 246.879 115.729 243.554 118.745L240.172 115.732C242.59 112.244 244.985 108.644 247.14 105.073C248.2 103.34 249.168 101.552 250.04 99.7174C250.433 98.8899 250.771 98.0368 251.049 97.1638C251.253 96.6041 251.352 96.0118 251.343 95.4162C251.343 95.4162 251.343 95.469 251.343 95.4162L251.305 95.2355L251.147 94.5199C251.049 94.0378 250.959 93.5632 250.816 93.0811L250.439 91.6424L250.01 90.1886C249.407 88.2602 248.737 86.3243 247.983 84.4035C247.23 82.4826 246.432 80.5543 245.588 78.6485C245.174 77.6994 244.744 76.7427 244.3 75.8087L242.989 73.0592L251.109 68.7129Z" fill="#E5BAAB"/>
<path d="M249.964 65.2559C255.373 67.3048 259.004 80.3664 259.004 80.3664L247.825 91.5073C247.825 91.5073 243.004 81.8504 241.046 74.6341C238.944 66.7775 243.419 62.7625 249.964 65.2559Z" fill="#263238"/>
<path d="M241.558 114.836L235.728 116.757L241.001 122.406C241.001 122.406 245.595 119.664 244.413 117.066L241.558 114.836Z" fill="#E5BAAB"/>
<path d="M232.903 120.952L237.468 125.419L240.993 122.413L235.728 116.764L232.903 120.952Z" fill="#E5BAAB"/>
</svg>
