<svg width="35" height="35" viewBox="0 0 35 35" fill="none" xmlns="http://www.w3.org/2000/svg">
<path d="M27.7083 17.5V27.7083H7.29167V17.5H4.375V27.7083C4.375 29.3125 5.6875 30.625 7.29167 30.625H27.7083C29.3125 30.625 30.625 29.3125 30.625 27.7083V17.5H27.7083ZM18.9583 18.4771L22.7354 14.7146L24.7917 16.7708L17.5 24.0625L10.2083 16.7708L12.2646 14.7146L16.0417 18.4771V4.375H18.9583V18.4771Z" fill="#154880"/>
</svg>
