<svg width="80" height="80" viewBox="0 0 80 80" fill="none" xmlns="http://www.w3.org/2000/svg">
<path d="M76.129 25.8064H74.8387V10.3226H12.9032V0H6.45161C2.89441 0 0 2.89441 0 6.45161V55.4839C0 59.0411 2.89441 61.9355 6.45161 61.9355H41.2903V76.129C41.2903 78.263 43.0273 80 45.1613 80H76.129C78.263 80 80 78.263 80 76.129V29.6774C80 27.5435 78.263 25.8064 76.129 25.8064ZM2.58065 6.45161C2.58065 4.31767 4.31767 2.58065 6.45161 2.58065H10.3226V49.0323H6.45161C5 49.0323 3.65927 49.5149 2.58065 50.3251V6.45161ZM6.45161 59.3548C4.31767 59.3548 2.58065 57.6178 2.58065 55.4839C2.58065 53.3499 4.31767 51.6129 6.45161 51.6129H12.9032V12.9032H72.2581V25.8064H45.5614C43.3947 19.6812 37.541 15.4839 30.9677 15.4839C22.4294 15.4839 15.4839 22.4294 15.4839 30.9677C15.4839 39.506 22.4294 46.4516 30.9677 46.4516C34.8129 46.4516 38.4772 45.0076 41.2903 42.4918V59.3548H6.45161ZM41.2903 29.6774H32.2581V18.137C37.1213 18.6284 41.3357 21.858 43.0532 26.439C41.9934 27.1302 41.2903 28.3216 41.2903 29.6774ZM29.6774 43.8054C23.1666 43.1559 18.0645 37.6462 18.0645 30.9677C18.0645 24.2893 23.1666 18.7796 29.6774 18.13V43.8054ZM32.2581 32.2581H41.2903V38.6813C39.1173 41.5833 35.8348 43.4312 32.2581 43.7922V32.2581ZM77.4193 76.129C77.4193 76.8397 76.8397 77.4193 76.129 77.4193H45.1613C44.4506 77.4193 43.871 76.8397 43.871 76.129V29.6774C43.871 28.9667 44.4506 28.3871 45.1613 28.3871H76.129C76.8397 28.3871 77.4193 28.9667 77.4193 29.6774V76.129Z" fill="#154880"/>
<path d="M46.4517 43.871H74.8388V30.9678H46.4517V43.871ZM49.0323 33.5484H72.2581V41.2904H49.0323V33.5484Z" fill="#154880"/>
<path d="M67.0967 74.8387H74.8386V67.0968H67.0967V74.8387ZM69.6773 69.6774H72.258V72.2581H69.6773V69.6774Z" fill="#154880"/>
<path d="M56.7742 74.8387H64.5161V67.0968H56.7742V74.8387ZM59.3548 69.6774H61.9355V72.2581H59.3548V69.6774Z" fill="#154880"/>
<path d="M46.4517 74.8387H54.1936V67.0968H46.4517V74.8387ZM49.0323 69.6774H51.613V72.2581H49.0323V69.6774Z" fill="#154880"/>
<path d="M67.0967 64.5161H74.8386V56.7742H67.0967V64.5161ZM69.6773 59.3548H72.258V61.9355H69.6773V59.3548Z" fill="#154880"/>
<path d="M56.7742 64.5161H64.5161V56.7742H56.7742V64.5161ZM59.3548 59.3548H61.9355V61.9355H59.3548V59.3548Z" fill="#154880"/>
<path d="M46.4517 64.5161H54.1936V56.7742H46.4517V64.5161ZM49.0323 59.3548H51.613V61.9355H49.0323V59.3548Z" fill="#154880"/>
<path d="M67.0967 54.1936H74.8386V46.4517H67.0967V54.1936ZM69.6773 49.0323H72.258V51.613H69.6773V49.0323Z" fill="#154880"/>
<path d="M56.7742 54.1936H64.5161V46.4517H56.7742V54.1936ZM59.3548 49.0323H61.9355V51.613H59.3548V49.0323Z" fill="#154880"/>
<path d="M46.4517 54.1936H54.1936V46.4517H46.4517V54.1936ZM49.0323 49.0323H51.613V51.613H49.0323V49.0323Z" fill="#154880"/>
<path d="M51.6128 15.4839H69.6773V18.0645H51.6128V15.4839Z" fill="#154880"/>
<path d="M49.0322 20.6451H69.6774V23.2258H49.0322V20.6451Z" fill="#154880"/>
</svg>
