<svg width="50" height="50" viewBox="0 0 50 50" fill="none" xmlns="http://www.w3.org/2000/svg">
<circle cx="25" cy="25" r="25" fill="#66789A"/>
<g clip-path="url(#clip0)">
<path d="M18.9375 33.0156V38.8131C18.9375 39.2181 19.1975 39.5769 19.5825 39.7044C19.6787 39.7356 19.7775 39.7506 19.875 39.7506C20.1675 39.7506 20.45 39.6131 20.63 39.3681L24.0213 34.7531L18.9375 33.0156Z" fill="white"/>
<path d="M37.6062 11.1739C37.3187 10.9701 36.9412 10.9426 36.6287 11.1064L8.50368 25.7939C8.17118 25.9676 7.97493 26.3226 8.00243 26.6964C8.03118 27.0714 8.27993 27.3914 8.63368 27.5126L16.4524 30.1851L33.1037 15.9476L20.2187 31.4714L33.3224 35.9501C33.4199 35.9826 33.5224 36.0001 33.6249 36.0001C33.7949 36.0001 33.9637 35.9539 34.1124 35.8639C34.3499 35.7189 34.5112 35.4751 34.5524 35.2014L37.99 12.0764C38.0412 11.7264 37.8937 11.3789 37.6062 11.1739Z" fill="white"/>
</g>
<defs>
<clipPath id="clip0">
<rect width="30" height="30" fill="white" transform="translate(8 11)"/>
</clipPath>
</defs>
</svg>
