<svg width="50" height="50" viewBox="0 0 50 50" fill="none" xmlns="http://www.w3.org/2000/svg">
<circle cx="25" cy="25" r="25" fill="#66789A"/>
<g clip-path="url(#clip0)">
<path d="M34.8938 26.285C34.4088 25.6725 34.5475 25.4 34.8938 24.8525C34.9 24.8463 38.9038 19.3138 39.3163 17.4375L39.3188 17.4362C39.5238 16.7525 39.3188 16.25 38.3275 16.25H35.0475C34.2125 16.25 33.8275 16.6812 33.6213 17.1637C33.6213 17.1637 31.9513 21.1613 29.5888 23.7525C28.8263 24.5013 28.4738 24.7413 28.0575 24.7413C27.8525 24.7413 27.5338 24.5013 27.5338 23.8175V17.4362C27.5338 16.6162 27.3 16.25 26.6088 16.25H21.4513C20.9275 16.25 20.6163 16.6325 20.6163 16.9888C20.6163 17.7663 21.7975 17.945 21.92 20.1325V24.8788C21.92 25.9188 21.7313 26.11 21.3125 26.11C20.1975 26.11 17.4913 22.0963 15.8875 17.5025C15.5638 16.6112 15.2475 16.2512 14.4063 16.2512H11.125C10.1887 16.2512 10 16.6825 10 17.165C10 18.0175 11.115 22.2563 15.185 27.8563C17.8975 31.6788 21.7175 33.75 25.1925 33.75C27.2813 33.75 27.5363 33.29 27.5363 32.4988C27.5363 28.8463 27.3475 28.5013 28.3938 28.5013C28.8788 28.5013 29.7138 28.7413 31.6638 30.585C33.8925 32.7713 34.2588 33.75 35.5063 33.75H38.7863C39.7213 33.75 40.195 33.29 39.9225 32.3825C39.2988 30.4738 35.0838 26.5475 34.8938 26.285Z" fill="white"/>
</g>
<defs>
<clipPath id="clip0">
<rect width="30" height="30" fill="white" transform="translate(10 10)"/>
</clipPath>
</defs>
</svg>
