<svg width="60" height="60" viewBox="0 0 60 60" fill="none" xmlns="http://www.w3.org/2000/svg">
<g clip-path="url(#clip0)">
<path d="M30.0075 0H29.9925C13.4513 0 0 13.455 0 30C0 36.5625 2.115 42.645 5.71125 47.5838L1.9725 58.7288L13.5037 55.0425C18.2475 58.185 23.9062 60 30.0075 60C46.5487 60 60 46.5412 60 30C60 13.4588 46.5487 0 30.0075 0Z" fill="#4CAF50"/>
<path d="M47.4638 42.3637C46.7401 44.4074 43.8676 46.1024 41.5763 46.5974C40.0088 46.9312 37.9613 47.1974 31.0688 44.3399C22.2526 40.6874 16.5751 31.7287 16.1326 31.1474C15.7088 30.5662 12.5701 26.4037 12.5701 22.0987C12.5701 17.7937 14.7563 15.6974 15.6376 14.7974C16.3613 14.0587 17.5576 13.7212 18.7051 13.7212C19.0763 13.7212 19.4101 13.7399 19.7101 13.7549C20.5913 13.7924 21.0338 13.8449 21.6151 15.2362C22.3388 16.9799 24.1013 21.2849 24.3113 21.7274C24.5251 22.1699 24.7388 22.7699 24.4388 23.3512C24.1576 23.9512 23.9101 24.2174 23.4676 24.7274C23.0251 25.2374 22.6051 25.6274 22.1626 26.1749C21.7576 26.6512 21.3001 27.1612 21.8101 28.0424C22.3201 28.9049 24.0826 31.7812 26.6776 34.0912C30.0263 37.0724 32.7413 38.0249 33.7126 38.4299C34.4363 38.7299 35.2988 38.6587 35.8276 38.0962C36.4988 37.3724 37.3276 36.1724 38.1713 34.9912C38.7713 34.1437 39.5288 34.0387 40.3238 34.3387C41.1338 34.6199 45.4201 36.7387 46.3013 37.1774C47.1826 37.6199 47.7638 37.8299 47.9776 38.2012C48.1876 38.5724 48.1876 40.3162 47.4638 42.3637Z" fill="#FAFAFA"/>
</g>
<defs>
<clipPath id="clip0">
<rect width="60" height="60" fill="white"/>
</clipPath>
</defs>
</svg>
